…
  - There were 1384617 observations and 15 variables in the `instacart`
    dataset.
  - The key variables in the `instacart` dataset were the names

<!-- end list -->

``` r
instacart %>%
  count(aisle_id, name = "n")%>%
arrange(desc(n))
```

    ## # A tibble: 134 x 2
    ##    aisle_id      n
    ##       <int>  <int>
    ##  1       83 150609
    ##  2       24 150473
    ##  3      123  78493
    ##  4      120  55240
    ##  5       21  41699
    ##  6      115  36617
    ##  7       84  32644
    ##  8      107  31269
    ##  9       91  26240
    ## 10      112  23635
    ## # … with 124 more rows
…
| product\_name    | Sunday | Monday | Tuesday | Wednesday | Thursday | Friday | Saturday |
| :--------------- | -----: | -----: | ------: | --------: | -------: | -----: | -------: |
| Coffee Ice Cream | 13.774 | 14.316 |  15.381 |    15.318 |   15.217 | 12.263 |   13.833 |
| Pink Lady Apples | 13.441 | 11.360 |  11.702 |    14.250 |   11.552 | 12.784 |   11.938 |

``` r
data("brfss_smart2010") 
```

``` r
brfss_smart2010 %>% 
janitor::clean_names() 
```

    ## # A tibble: 134,203 x 23
    ##     year locationabbr locationdesc class topic question response
    ##    <int> <chr>        <chr>        <chr> <chr> <chr>    <chr>   
    ##  1  2010 AL           AL - Jeffer… Heal… Over… How is … Excelle…
    ##  2  2010 AL           AL - Jeffer… Heal… Over… How is … Very go…
    ##  3  2010 AL           AL - Jeffer… Heal… Over… How is … Good    
    ##  4  2010 AL           AL - Jeffer… Heal… Over… How is … Fair    
    ##  5  2010 AL           AL - Jeffer… Heal… Over… How is … Poor    
    ##  6  2010 AL           AL - Jeffer… Heal… Fair… Health … Good or…
    ##  7  2010 AL           AL - Jeffer… Heal… Fair… Health … Fair or…
    ##  8  2010 AL           AL - Jeffer… Heal… Heal… Do you … Yes     
    ##  9  2010 AL           AL - Jeffer… Heal… Heal… Do you … No      
    ## 10  2010 AL           AL - Jeffer… Heal… Unde… Adults … Yes     
    ## # … with 134,193 more rows, and 16 more variables: sample_size <int>,
    ## #   data_value <dbl>, confidence_limit_low <dbl>,
    ## #   confidence_limit_high <dbl>, display_order <int>,
    ## #   data_value_unit <chr>, data_value_type <chr>,
    ## #   data_value_footnote_symbol <chr>, data_value_footnote <chr>,
    ## #   data_source <chr>, class_id <chr>, topic_id <chr>, location_id <chr>,
    ## #   question_id <chr>, respid <chr>, geo_location <chr>
